{
  "project_info": {
    "project_number": "882820797667",
    "project_id": "wispay-6ccac",
    "storage_bucket": "wispay-6ccac.appspot.com"
  },
  "client": [
    {
      "client_info": {
        "mobilesdk_app_id": "1:882820797667:android:3d30069cd89b1fbd8861d6",
        "android_client_info": {
          "package_name": "com.wispay"
        }
      },
      "oauth_client": [
        {
          "client_id": "882820797667-6teqhie3pp15fkles8b6jcgjjlrpg355.apps.googleusercontent.com",
          "client_type": 3
        }
      ],
      "api_key": [
        {
          "current_key": "AIzaSyCVZvvznMxfWKCydUBOi8fIsj3RAcLXIBQ"
        }
      ],
      "services": {
        "appinvite_service": {
          "other_platform_oauth_client": [
            {
              "client_id": "882820797667-6teqhie3pp15fkles8b6jcgjjlrpg355.apps.googleusercontent.com",
              "client_type": 3
            }
          ]
        }
      }
    },
    {
      "client_info": {
        "mobilesdk_app_id": "1:882820797667:android:a4ef33cb8a1dd6ff8861d6",
        "android_client_info": {
          "package_name": "com.wispayoutlet"
        }
      },
      "oauth_client": [
        {
          "client_id": "882820797667-6teqhie3pp15fkles8b6jcgjjlrpg355.apps.googleusercontent.com",
          "client_type": 3
        }
      ],
      "api_key": [
        {
          "current_key": "AIzaSyCVZvvznMxfWKCydUBOi8fIsj3RAcLXIBQ"
        }
      ],
      "services": {
        "appinvite_service": {
          "other_platform_oauth_client": [
            {
              "client_id": "882820797667-6teqhie3pp15fkles8b6jcgjjlrpg355.apps.googleusercontent.com",
              "client_type": 3
            }
          ]
        }
      }
    },
    {
      "client_info": {
        "mobilesdk_app_id": "1:882820797667:android:da980e7267343dcf8861d6",
        "android_client_info": {
          "package_name": "com.wispayoutlet.staging"
        }
      },
      "oauth_client": [
        {
          "client_id": "882820797667-6teqhie3pp15fkles8b6jcgjjlrpg355.apps.googleusercontent.com",
          "client_type": 3
        }
      ],
      "api_key": [
        {
          "current_key": "AIzaSyCVZvvznMxfWKCydUBOi8fIsj3RAcLXIBQ"
        }
      ],
      "services": {
        "appinvite_service": {
          "other_platform_oauth_client": [
            {
              "client_id": "882820797667-6teqhie3pp15fkles8b6jcgjjlrpg355.apps.googleusercontent.com",
              "client_type": 3
            }
          ]
        }
      }
    },
    {
      "client_info": {
        "mobilesdk_app_id": "1:882820797667:android:b0c45cb0f33de19a8861d6",
        "android_client_info": {
          "package_name": "com.wispaysales"
        }
      },
      "oauth_client": [
        {
          "client_id": "882820797667-6teqhie3pp15fkles8b6jcgjjlrpg355.apps.googleusercontent.com",
          "client_type": 3
        }
      ],
      "api_key": [
        {
          "current_key": "AIzaSyCVZvvznMxfWKCydUBOi8fIsj3RAcLXIBQ"
        }
      ],
      "services": {
        "appinvite_service": {
          "other_platform_oauth_client": [
            {
              "client_id": "882820797667-6teqhie3pp15fkles8b6jcgjjlrpg355.apps.googleusercontent.com",
              "client_type": 3
            }
          ]
        }
      }
    },
    {
      "client_info": {
        "mobilesdk_app_id": "1:882820797667:android:3ef566dc5db68d518861d6",
        "android_client_info": {
          "package_name": "com.wispaysales.staging"
        }
      },
      "oauth_client": [
        {
          "client_id": "882820797667-6teqhie3pp15fkles8b6jcgjjlrpg355.apps.googleusercontent.com",
          "client_type": 3
        }
      ],
      "api_key": [
        {
          "current_key": "AIzaSyCVZvvznMxfWKCydUBOi8fIsj3RAcLXIBQ"
        }
      ],
      "services": {
        "appinvite_service": {
          "other_platform_oauth_client": [
            {
              "client_id": "882820797667-6teqhie3pp15fkles8b6jcgjjlrpg355.apps.googleusercontent.com",
              "client_type": 3
            }
          ]
        }
      }
    }
  ],
  "configuration_version": "1"
}